{
    "watch": ["src"],
    "ignoreRoot": [".git"],
    "ext": "js,ts,json",
    "exec": "ts-node ./src/index.ts",
    "env": {
        "NODE_NO_WARNINGS": 1,

        "LOG_LOKI": "http://localhost:3100",

        "LISTING_WORKER": 1,
        "LISTING_WORKER_MAX_PAGE": 1,

        "SCRAPE_WORKERS": 1
    }
}
